hyperparameter-tuning – ESS330lab6
…
Based on this, I see that only having 1 randomly selected predictor producer the best result. This makes sense because I only have one predictor in my recipe and did chose the mtry hyperparameter. Now I know that was maybe not the best hyperparameter to go with but at this point I am going to stick with it. As for the minimal mode size, I see that as the number of nodes increase, the rsq goes down and the rmse and mae goes up, which tells me that the best node size is going to be somewhere in the lower range.

6. check the skills of the tuned model

# Collect all metrics from the tuned model
model_metrics <- collect_metrics(model_params)

# View the collected metrics
model_metrics

# A tibble: 75 × 8
    mtry min_n .metric .estimator  mean     n std_err .config              
   <int> <int> <chr>   <chr>      <dbl> <int>   <dbl> <chr>                
 1     1    24 mae     standard   0.328    10 0.0200  Preprocessor1_Model01
 2     1    24 rmse    standard   0.501    10 0.0365  Preprocessor1_Model01
 3     1    24 rsq     standard   0.913    10 0.00840 Preprocessor1_Model01
 4     1    13 mae     standard   0.326    10 0.0200  Preprocessor1_Model02
 5     1    13 rmse    standard   0.498    10 0.0357  Preprocessor1_Model02
 6     1    13 rsq     standard   0.914    10 0.00709 Preprocessor1_Model02
 7     1    33 mae     standard   0.335    10 0.0192  Preprocessor1_Model03
 8     1    33 rmse    standard   0.526    10 0.0351  Preprocessor1_Model03
 9     1    33 rsq     standard   0.909    10 0.00866 Preprocessor1_Model03
10     1     5 mae     standard   0.328    10 0.0185  Preprocessor1_Model04
# ℹ 65 more rows
…
