lab6 – ESS330lab6
…
Looking at the workflow rank result, it looks like neutral network outperformed the linear_reg model and the rand_forest model while the xgboost model underperformed. Going forward, I would use the neutral network model since it has the highest R squared

Question 4

part 1: Data Splitting

camels |> 
  select(aridity, p_mean, elev_mean) |> 
  drop_na()

# A tibble: 671 × 3
   aridity p_mean elev_mean
     <dbl>  <dbl>     <dbl>
 1   0.631   3.13     250. 
 2   0.587   3.61      92.7
 3   0.624   3.27     144. 
 4   0.588   3.52     248. 
 5   0.629   3.32     310. 
 6   0.562   3.73     616. 
 7   0.523   4.07     472. 
 8   0.599   3.49     423. 
 9   0.597   3.57     216. 
10   0.630   3.50      37.7
# ℹ 661 more rows
…
